STAT433_HW1
…
#2).
minutes_since_midnight <- flights %>%
  select(dep_time, sched_dep_time) %>%
  mutate(hour_dep = dep_time %/% 100,
         minutes_dep = dep_time - (hour_dep * 100),
         minutes_since_dep = ((hour_dep*60)+minutes_dep) %% 1440,
         hour_sched = sched_dep_time %/% 100,
         minutes_sched = sched_dep_time - (hour_sched * 100),
         minutes_since_sched = ((hour_sched*60)+minutes_sched) %% 1440) %>%
  select(dep_time, minutes_since_dep, sched_dep_time, minutes_since_sched)

minutes_since_midnight

## # A tibble: 336,776 x 4
##    dep_time minutes_since_dep sched_dep_time minutes_since_sched
##       <int>             <dbl>          <int>               <dbl>
##  1      517               317            515                 315
##  2      533               333            529                 329
##  3      542               342            540                 340
##  4      544               344            545                 345
##  5      554               354            600                 360
##  6      554               354            558                 358
##  7      555               355            600                 360
##  8      557               357            600                 360
##  9      557               357            600                 360
## 10      558               358            600                 360
## #  with 336,766 more rows
…
